^C:\USERS\PERADLL\DOCUMENTS\VISUAL STUDIO 2010\PROJECTS\CS430-PROJEKAT-PETROVICPETAR2630\CS430-PROJEKAT-PETROVICPETAR2630\DEBUG\CS430-PROJEKAT-PETROVICPETAR2630.EXE.INTERMEDIATE.MANIFEST
C:\USERS\PERADLL\DOCUMENTS\VISUAL STUDIO 2010\PROJECTS\CS430-PROJEKAT-PETROVICPETAR2630\CS430-PROJEKAT-PETROVICPETAR2630\DEBUG\CS430-PROJEKAT-PETROVICPETAR2630.EXE.EMBED.MANIFEST
^C:\USERS\PERADLL\DOCUMENTS\CS430-PROJEKAT-PETROVICPETAR2630\CS430-PROJEKAT-PETROVICPETAR2630\DEBUG\CS430-PROJEKAT-PETROVICPETAR2630.EXE.INTERMEDIATE.MANIFEST
C:\USERS\PERADLL\DOCUMENTS\CS430-PROJEKAT-PETROVICPETAR2630\CS430-PROJEKAT-PETROVICPETAR2630\DEBUG\CS430-PROJEKAT-PETROVICPETAR2630.EXE.EMBED.MANIFEST
