^C:\USERS\PERADLL\DOCUMENTS\VISUAL STUDIO 2010\PROJECTS\CS430-PROJEKAT-PETROVICPETAR2630\CS430-PROJEKAT-PETROVICPETAR2630\DEBUG\CS430-PROJEKAT-PETROVICPETAR2630_MANIFEST.RC
/nologo /fo"Debug\CS430-Projekat-PetrovicPetar2630.exe.embed.manifest.res" Debug\CS430-Projekat-PetrovicPetar2630_manifest.rc /nologo /fo"Debug\CS430-Projekat-PetrovicPetar2630.exe.embed.manifest.res" C:\USERS\PERADLL\DOCUMENTS\VISUAL STUDIO 2010\PROJECTS\CS430-PROJEKAT-PETROVICPETAR2630\CS430-PROJEKAT-PETROVICPETAR2630\DEBUG\CS430-PROJEKAT-PETROVICPETAR2630_MANIFEST.RC
^C:\USERS\PERADLL\DOCUMENTS\CS430-PROJEKAT-PETROVICPETAR2630\CS430-PROJEKAT-PETROVICPETAR2630\DEBUG\CS430-PROJEKAT-PETROVICPETAR2630_MANIFEST.RC
/nologo /fo"Debug\CS430-Projekat-PetrovicPetar2630.exe.embed.manifest.res" Debug\CS430-Projekat-PetrovicPetar2630_manifest.rc /nologo /fo"Debug\CS430-Projekat-PetrovicPetar2630.exe.embed.manifest.res" C:\USERS\PERADLL\DOCUMENTS\CS430-PROJEKAT-PETROVICPETAR2630\CS430-PROJEKAT-PETROVICPETAR2630\DEBUG\CS430-PROJEKAT-PETROVICPETAR2630_MANIFEST.RC
